{
    "topic": "Frontend Development",
    "description": "Frontend development involves creating user interfaces and experiences for websites and web applications. It focuses on the client-side of web development, including HTML, CSS, and JavaScript.",
    "key_skills": [
      "1. Internet \n",
      "2. HTML \n",
      "3. CSS \n",
      "4. JavaScript \n",
      "5. Version Control Systems \n",
      "6. Web Security Knowledge\n",
      "7. Package Managers  \n",
      "8. CSS Architecture  \n",
      "9. CSS Preprocessors  \n",
      "11. Pick a Framework  \n",
      "12. Modern CSS \n",
      "13. CSS frameworks  \n",
      "14. Authentication Strategies  \n",
      "15. Web Components \n",
      "16. Type Checkers \n"
    ],
    "Internet": [
        "Frontend development involves creating user interfaces and experiences for websites and web applications. It focuses on the client-side of web development, including HTML, CSS, and JavaScript.\n\n",
        "Learn more: from links \n",
        "1. How does the Internet Work? - https://cs.fyi/guide/how-does-internet-work \n",
        "2. The Internet Explained - https://www.vox.com/2014/6/16/18076282/the-internet \n",
        "3. How Does the Internet Work? - http://web.stanford.edu/class/msande91si/www-spr04/readings/week1/InternetWhitepaper.html \n",
        "4. Introduction to Internet - https://roadmap.sh/guides/what-is-internet \n",
        "5. Learn How the Web Works - https://internetfundamentals.com/ \n",
        "6. How does the Internet work? - https://www.youtube.com/watch?v=x3c1ih2NJEg&ab_channel=Lesics \n"
    ],
    "HTML": [
        "HTML stands for HyperText Markup Language. It is used on the frontend and gives the structure to the webpage which you can style using CSS and make interactive using JavaScript.\n\n",
        "Visit the following resources to learn more: \n",
        "1. W3Schools: Learn HTML - https://www.w3schools.com/html/html_intro.asp \n",
        "2. htmlreference.io: All HTML elements at a glance - https://htmlreference.io/ \n",
        "3. HTML For Beginners The Easy Way - https://html.com/ \n",
        "4. Web Development Basics - https://internetingishard.netlify.app/html-and-css/index.html \n",
        "5. Codecademy - Learn HTML - https://www.codecademy.com/learn/learn-html \n",
        "6. Interactive HTML Course - https://github.com/denysdovhan/learnyouhtml \n",
        "7. HTML Full Course for Beginners | Complete All-in-One Tutorial - https://www.youtube.com/watch?v=mJgBOIoGihA&ab_channel=DaveGray \n",
        "8. HTML Full Course - Build a Website Tutorial - https://www.youtube.com/watch?v=pQN-pnXPaVg&ab_channel=freeCodeCamp.org \n",
        "9. HTML Tutorial for Beginners: HTML Crash Course - https://www.youtube.com/watch?v=qz0aGYrrlhU&ab_channel=ProgrammingwithMosh \n"
    ],
    "CSS": [
        "1. CSS or Cascading Style Sheets is the language used to style the frontend of any website. CSS is a cornerstone technology of the World Wide Web, alongside HTML and JavaScript.\n\n",
        "2. Visit the following resources to learn more: \n",
        "3. The Odin Project - https://www.theodinproject.com//\n",
        "4. What The Flexbox! - https://flexbox.io/\n",
        "5. Learn CSS | Codecademy - https://www.codecademy.com/learn/learn-css\n",
        "6. Learn Intermediate CSS | Codecademy - https://www.codecademy.com/learn/learn-intermediate-css\n",
        "7. CSS Complete Course - https://www.youtube.com/watch?v=n4R2E7O-Ngo&ab_channel=DaveGray\n",
        "8. CSS Crash Course For Absolute Beginners - https://www.youtube.com/watch?v=yfoY53QXEnI \n",
        "9. HTML and CSS Tutorial - https://www.youtube.com/watch?v=D-h8L5hgW-w&ab_channel=DesignCourse \n"
    ],
    "Javascript": [
        "1. JavaScript allows you to add interactivity to your pages. Common examples that you may have seen on the websites are sliders, click interactions, popups and so on.\n\n",
        "2. Visit the following resources to learn more: \n",
        "3. Visit Dedicated JavaScript Roadmap - https://roadmap.sh/javascript\n",
        "4. W3Schools – JavaScript Tutorial - https://www.w3schools.com/js/\n",
        "5. The Modern JavaScript Tutorial - https://javascript.info/\n",
        "6. Learn JavaScript: Covered many topics - https://www.javascripttutorial.net/ \n"
    ]
  }